%YAML 1.1
%TAG !u! tag:unity3d.com,2011:
--- !u!21 &2100000
Material:
  serializedVersion: 6
  m_ObjectHideFlags: 0
  m_PrefabParentObject: {fileID: 0}
  m_PrefabInternal: {fileID: 0}
  m_Name: Jet
  m_Shader: {fileID: 4800000, guid: 80979ccfe64a90c49b9fd932c1acb075, type: 3}
  m_ShaderKeywords: 
  m_LightmapFlags: 5
  m_CustomRenderQueue: -1
  stringTagMap: {}
  m_SavedProperties:
    serializedVersion: 2
    m_TexEnvs:
    - first:
        name: _BumpMap
      second:
        m_Texture: {fileID: 2800000, guid: 2561b5b6d6e031d43bdb331d6b38c5ee, type: 3}
        m_Scale: {x: 1, y: 1}
        m_Offset: {x: 0, y: 0}
    - first:
        name: _FallOff
      second:
        m_Texture: {fileID: 8900000, guid: 6c11c6ccbb93b4147b3ada5d2bd70f18, type: 2}
        m_Scale: {x: 1, y: 1}
        m_Offset: {x: 0, y: 0}
    - first:
        name: _MainTex
      second:
        m_Texture: {fileID: 2800000, guid: baa8f45b15940ae4aa17522af01bd8a9, type: 3}
        m_Scale: {x: 1, y: 1}
        m_Offset: {x: -0, y: -0}
    - first:
        name: _MainTex2
      second:
        m_Texture: {fileID: 2800000, guid: 4b522db782223404094aced960740d95, type: 3}
        m_Scale: {x: 1, y: 1}
        m_Offset: {x: 0, y: 0}
    - first:
        name: _Mask
      second:
        m_Texture: {fileID: 2800000, guid: c2a9ef63c14f0484fb69a1cfef470eed, type: 3}
        m_Scale: {x: 1, y: 1}
        m_Offset: {x: 0, y: 0}
    - first:
        name: _Noise
      second:
        m_Texture: {fileID: 2800000, guid: 23a02ac18d11c9ffa0009c58a8ad6659, type: 3}
        m_Scale: {x: 1, y: 1}
        m_Offset: {x: 0, y: 0}
    - first:
        name: _ParallaxMap
      second:
        m_Texture: {fileID: 0}
        m_Scale: {x: 1, y: 1}
        m_Offset: {x: 0, y: 0}
    - first:
        name: _RampTex
      second:
        m_Texture: {fileID: 2800000, guid: e146959306087aa4da2ce68867968f7c, type: 3}
        m_Scale: {x: 1, y: 1}
        m_Offset: {x: 0, y: 0}
    - first:
        name: _ReflectTex
      second:
        m_Texture: {fileID: 0}
        m_Scale: {x: 1, y: 1}
        m_Offset: {x: 0, y: 0}
    - first:
        name: _ReflectionTex
      second:
        m_Texture: {fileID: 0}
        m_Scale: {x: 1, y: 1}
        m_Offset: {x: 0, y: 0}
    - first:
        name: _RefractTex
      second:
        m_Texture: {fileID: 2800000, guid: 4d41f735e4e2ea44e914666ea6674b70, type: 3}
        m_Scale: {x: 1, y: 1}
        m_Offset: {x: 0, y: 0}
    - first:
        name: _ShoreTex
      second:
        m_Texture: {fileID: 0}
        m_Scale: {x: 1, y: 1}
        m_Offset: {x: 0, y: 0}
    m_Floats:
    - first:
        name: _BumpAmt
      second: 10
    - first:
        name: _Cutoff
      second: 0.01
    - first:
        name: _FadeDistance
      second: 67.86
    - first:
        name: _FresnelScale
      second: 0.75
    - first:
        name: _GerstnerIntensity
      second: 1
    - first:
        name: _Glossiness
      second: 0.4300518
    - first:
        name: _InvFade
      second: 1
    - first:
        name: _Outline
      second: 0.006153846
    - first:
        name: _Parallax
      second: 0.02
    - first:
        name: _RefractTexTiling
      second: 0.98
    - first:
        name: _RimPower
      second: 1.5779213
    - first:
        name: _Shininess
      second: 0.5242087
    m_Colors:
    - first:
        name: _AnimationDirection
      second: {r: 1, g: 1, b: 1, a: 1}
    - first:
        name: _AnimationTiling
      second: {r: 2.2, g: 2.2, b: -1.1, a: -1.1}
    - first:
        name: _BaseColor
      second: {r: 0.54, g: 0.95, b: 0.99, a: 0.5}
    - first:
        name: _BumpDirection
      second: {r: 1, g: 1, b: -1, a: 1}
    - first:
        name: _BumpTiling
      second: {r: 1, g: 1, b: -2, a: 3}
    - first:
        name: _Color
      second: {r: 0.12326991, g: 0.83823526, b: 0.6903114, a: 0.50980395}
    - first:
        name: _DiffuseColor
      second: {r: 1, g: 0, b: 0, a: 1}
    - first:
        name: _DistortParams
      second: {r: 1, g: 1, b: 2, a: 1.15}
    - first:
        name: _EmisColor
      second: {r: 0.2, g: 0.2, b: 0.2, a: 0}
    - first:
        name: _Emission
      second: {r: 1, g: 0, b: 0, a: 1}
    - first:
        name: _Foam
      second: {r: 0.1, g: 0.375, b: 0, a: 0}
    - first:
        name: _GAmplitude
      second: {r: 0.3, g: 0.35, b: 0.25, a: 0.25}
    - first:
        name: _GDirectionAB
      second: {r: 0.3, g: 0.85, b: 0.85, a: 0.25}
    - first:
        name: _GDirectionCD
      second: {r: 0.1, g: 0.9, b: 0.5, a: 0.5}
    - first:
        name: _GFrequency
      second: {r: 1.3, g: 1.35, b: 1.25, a: 1.25}
    - first:
        name: _GSpeed
      second: {r: 1.2, g: 1.375, b: 1.1, a: 1.5}
    - first:
        name: _GSteepness
      second: {r: 1, g: 1, b: 1, a: 1}
    - first:
        name: _GlowColor
      second: {r: 0.59440565, g: 0, b: 1, a: 1}
    - first:
        name: _InvFadeParemeter
      second: {r: 0.15, g: 0.15, b: 0.5, a: 1}
    - first:
        name: _OutlineColor
      second: {r: 1, g: 0, b: 0, a: 1}
    - first:
        name: _ReflectionColor
      second: {r: 0.54, g: 0.95, b: 0.99, a: 0.5}
    - first:
        name: _RimColor
      second: {r: 0, g: 0.1188812, b: 1, a: 1}
    - first:
        name: _SpecColor
      second: {r: 1, g: 1, b: 1, a: 1}
    - first:
        name: _SpecularColor
      second: {r: 0.3006994, g: 1, b: 0, a: 1}
    - first:
        name: _SpeedStrength
      second: {r: 1, g: 1, b: 1, a: 1}
    - first:
        name: _TintColor
      second: {r: 0, g: 0.32867146, b: 1, a: 0.9843137}
    - first:
        name: _WorldLightDir
      second: {r: 0, g: 0.1, b: -0.5, a: 0}
    - first:
        name: _params
      second: {r: 0.2, g: 0.9, b: 0.5, a: 0.9}
    - first:
        name: _sunpos
      second: {r: 0.5, g: 0.5, b: 0, a: 0}
